SystemVerilog/res.vcd
$date
	Mon Nov 15 11:56:21 2021
$end
$version
	Icarus Verilog
$end
$timescale
	1ps
$end
$scope module Sensor_tb $end
$var wire 32 ! data [31:0] $end
$var reg 1 " clk $end
$var reg 1 # reset $end
$scope module sensor $end
$var wire 1 " clk $end
$var wire 32 $ data [31:0] $end
$var wire 1 # reset $end
$var wire 1 % read $end
$var wire 1 & ramp $end
$var wire 1 ' expose $end
$var wire 1 ( erase $end
$var wire 1 ) convert $end
$var wire 1 * bias $end
$var reg 8 + counter [7:0] $end
$scope module array $end
$var wire 1 * BIAS $end
$var wire 8 , DATA1 [7:0] $end
$var wire 8 - DATA2 [7:0] $end
$var wire 8 . DATA3 [7:0] $end
$var wire 8 / DATA4 [7:0] $end
$var wire 1 & RAMP $end
$var wire 1 % READ $end
$var wire 1 ' EXPOSE $end
$var wire 1 ( ERASE $end
$scope module sens1 $end
$var wire 1 * BIAS $end
$var wire 8 0 DATA [7:0] $end
$var wire 1 & RAMP $end
$var wire 1 % READ $end
$var wire 1 ' EXPOSE $end
$var wire 1 ( ERASE $end
$var reg 1 1 cmp $end
$var reg 8 2 p_data [7:0] $end
$var real 1 3 adc $end
$var real 1 4 lsb $end
$var real 1 5 tmp $end
$var real 1 6 v_erase $end
$upscope $end
$scope module sens2 $end
$var wire 1 * BIAS $end
$var wire 8 7 DATA [7:0] $end
$var wire 1 & RAMP $end
$var wire 1 % READ $end
$var wire 1 ' EXPOSE $end
$var wire 1 ( ERASE $end
$var reg 1 8 cmp $end
$var reg 8 9 p_data [7:0] $end
$var real 1 : adc $end
$var real 1 ; lsb $end
$var real 1 < tmp $end
$var real 1 = v_erase $end
$upscope $end
$scope module sens3 $end
$var wire 1 * BIAS $end
$var wire 8 > DATA [7:0] $end
$var wire 1 & RAMP $end
$var wire 1 % READ $end
$var wire 1 ' EXPOSE $end
$var wire 1 ( ERASE $end
$var reg 1 ? cmp $end
$var reg 8 @ p_data [7:0] $end
$var real 1 A adc $end
$var real 1 B lsb $end
$var real 1 C tmp $end
$var real 1 D v_erase $end
$upscope $end
$scope module sens4 $end
$var wire 1 * BIAS $end
$var wire 8 E DATA [7:0] $end
$var wire 1 & RAMP $end
$var wire 1 % READ $end
$var wire 1 ' EXPOSE $end
$var wire 1 ( ERASE $end
$var reg 1 F cmp $end
$var reg 8 G p_data [7:0] $end
$var real 1 H adc $end
$var real 1 I lsb $end
$var real 1 J tmp $end
$var real 1 K v_erase $end
$upscope $end
$upscope $end
$scope module fsm $end
$var wire 1 " clk $end
$var wire 1 # reset $end
$var reg 1 ) convert $end
$var reg 1 ( erase $end
$var reg 1 ' expose $end
$var reg 3 L next_state [2:0] $end
$var reg 1 % read $end
$var reg 3 M state [2:0] $end
$var integer 32 N counter [31:0] $end
$upscope $end
$upscope $end
$upscope $end
$enddefinitions $end
#500000
$dumpvars
b0 N
b0 M
b0 L
r1.2 K
r1.2 J
r0.004705882352941176 I
r0 H
b0 G
0F
b0 E
r1.2 D
r1.2 C
r0.004705882352941176 B
r0 A
b0 @
0?
b0 >
r1.2 =
r1.2 <
r0.004705882352941176 ;
r0 :
b0 9
08
b0 7
r1.2 6
r1.2 5
r0.004705882352941176 4
r0 3
b0 2
01
b0 0
b0 /
b0 .
b0 -
b0 ,
b0 +
0*
0)
0(
0'
0&
0%
b0 $
0#
1"
b0 !
$end
#600000
1(
0"
#700000
b1 N
1"
#800000
0"
#900000
b10 N
1"
#1000000
0"
#1100000
b11 N
1"
#1200000
0"
#1300000
b100 N
1"
#1400000
0"
#1500000
b101 N
1"
#1600000
0"
#1700000
b100 M
b1 L
b110 N
1"
#1800000
0(
0"
#1900000
b1 M
b0 N
1"
#2000000
1'
0"
#2100000
r1.196235294117647 J
r1.196235294117647 C
r1.197647058823529 <
r1.197647058823529 5
1*
b1 N
1"
#2200000
0*
0"
#2300000
r1.195294117647059 5
r1.195294117647059 <
r1.192470588235294 C
r1.192470588235294 J
1*
b10 N
1"
#2400000
0*
0"
#2500000
r1.188705882352941 J
r1.188705882352941 C
r1.192941176470588 <
r1.192941176470588 5
1*
b11 N
1"
#2600000
0*
0"
#2700000
r1.190588235294117 5
r1.190588235294117 <
r1.184941176470588 C
r1.184941176470588 J
1*
b100 N
1"
#2800000
0*
0"
#2900000
r1.181176470588235 J
r1.181176470588235 C
r1.188235294117647 <
r1.188235294117647 5
1*
b101 N
1"
#3000000
0*
0"
#3100000
r1.185882352941176 5
r1.185882352941176 <
r1.177411764705883 C
r1.177411764705883 J
1*
b110 N
1"
#3200000
0*
0"
#3300000
r1.17364705882353 J
r1.17364705882353 C
r1.183529411764705 <
r1.183529411764705 5
1*
b111 N
1"
#3400000
0*
0"
#3500000
r1.181176470588235 5
r1.181176470588235 <
r1.169882352941177 C
r1.169882352941177 J
1*
b1000 N
1"
#3600000
0*
0"
#3700000
r1.166117647058824 J
r1.166117647058824 C
r1.178823529411764 <
r1.178823529411764 5
1*
b1001 N
1"
#3800000
0*
0"
#3900000
r1.176470588235293 5
r1.176470588235293 <
r1.162352941176471 C
r1.162352941176471 J
1*
b1010 N
1"
#4000000
0*
0"
#4100000
r1.158588235294118 J
r1.158588235294118 C
r1.174117647058823 <
r1.174117647058823 5
1*
b1011 N
1"
#4200000
0*
0"
#4300000
r1.171764705882352 5
r1.171764705882352 <
r1.154823529411765 C
r1.154823529411765 J
1*
b1100 N
1"
#4400000
0*
0"
#4500000
r1.151058823529412 J
r1.151058823529412 C
r1.169411764705881 <
r1.169411764705881 5
1*
b1101 N
1"
#4600000
0*
0"
#4700000
r1.167058823529411 5
r1.167058823529411 <
r1.147294117647059 C
r1.147294117647059 J
1*
b1110 N
1"
#4800000
0*
0"
#4900000
r1.143529411764707 J
r1.143529411764707 C
r1.16470588235294 <
r1.16470588235294 5
1*
b1111 N
1"
#5000000
0*
0"
#5100000
r1.162352941176469 5
r1.162352941176469 <
r1.139764705882354 C
r1.139764705882354 J
1*
b10000 N
1"
#5200000
0*
0"
#5300000
r1.136000000000001 J
r1.136000000000001 C
r1.159999999999999 <
r1.159999999999999 5
1*
b10001 N
1"
#5400000
0*
0"
#5500000
r1.157647058823528 5
r1.157647058823528 <
r1.132235294117648 C
r1.132235294117648 J
1*
b10010 N
1"
#5600000
0*
0"
#5700000
r1.128470588235295 J
r1.128470588235295 C
r1.155294117647057 <
r1.155294117647057 5
1*
b10011 N
1"
#5800000
0*
0"
#5900000
r1.152941176470587 5
r1.152941176470587 <
r1.124705882352942 C
r1.124705882352942 J
1*
b10100 N
1"
#6000000
0*
0"
#6100000
r1.120941176470589 J
r1.120941176470589 C
r1.150588235294116 <
r1.150588235294116 5
1*
b10101 N
1"
#6200000
0*
0"
#6300000
r1.148235294117645 5
r1.148235294117645 <
r1.117176470588236 C
r1.117176470588236 J
1*
b10110 N
1"
#6400000
0*
0"
#6500000
r1.113411764705883 J
r1.113411764705883 C
r1.145882352941175 <
r1.145882352941175 5
1*
b10111 N
1"
#6600000
0*
0"
#6700000
r1.143529411764704 5
r1.143529411764704 <
r1.109647058823531 C
r1.109647058823531 J
1*
b11000 N
1"
#6800000
0*
0"
#6900000
r1.105882352941178 J
r1.105882352941178 C
r1.141176470588233 <
r1.141176470588233 5
1*
b11001 N
1"
#7000000
0*
0"
#7100000
r1.138823529411763 5
r1.138823529411763 <
r1.102117647058825 C
r1.102117647058825 J
1*
b11010 N
1"
#7200000
0*
0"
#7300000
r1.098352941176472 J
r1.098352941176472 C
r1.136470588235292 <
r1.136470588235292 5
1*
b11011 N
1"
#7400000
0*
0"
#7500000
r1.134117647058821 5
r1.134117647058821 <
r1.094588235294119 C
r1.094588235294119 J
1*
b11100 N
1"
#7600000
0*
0"
#7700000
r1.090823529411766 J
r1.090823529411766 C
r1.131764705882351 <
r1.131764705882351 5
1*
b11101 N
1"
#7800000
0*
0"
#7900000
r1.12941176470588 5
r1.12941176470588 <
r1.087058823529413 C
r1.087058823529413 J
1*
b11110 N
1"
#8000000
0*
0"
#8100000
r1.08329411764706 J
r1.08329411764706 C
r1.127058823529409 <
r1.127058823529409 5
1*
b11111 N
1"
#8200000
0*
0"
#8300000
r1.124705882352939 5
r1.124705882352939 <
r1.079529411764707 C
r1.079529411764707 J
1*
b100000 N
1"
#8400000
0*
0"
#8500000
r1.075764705882355 J
r1.075764705882355 C
r1.122352941176468 <
r1.122352941176468 5
1*
b100001 N
1"
#8600000
0*
0"
#8700000
r1.119999999999997 5
r1.119999999999997 <
r1.072000000000002 C
r1.072000000000002 J
1*
b100010 N
1"
#8800000
0*
0"
#8900000
r1.068235294117649 J
r1.068235294117649 C
r1.117647058823527 <
r1.117647058823527 5
1*
b100011 N
1"
#9000000
0*
0"
#9100000
r1.115294117647056 5
r1.115294117647056 <
r1.064470588235296 C
r1.064470588235296 J
1*
b100100 N
1"
#9200000
0*
0"
#9300000
r1.060705882352943 J
r1.060705882352943 C
r1.112941176470585 <
r1.112941176470585 5
1*
b100101 N
1"
#9400000
0*
0"
#9500000
r1.110588235294115 5
r1.110588235294115 <
r1.05694117647059 C
r1.05694117647059 J
1*
b100110 N
1"
#9600000
0*
0"
#9700000
r1.053176470588237 J
r1.053176470588237 C
r1.108235294117644 <
r1.108235294117644 5
1*
b100111 N
1"
#9800000
0*
0"
#9900000
r1.105882352941173 5
r1.105882352941173 <
r1.049411764705884 C
r1.049411764705884 J
1*
b101000 N
1"
#10000000
0*
0"
#10100000
r1.045647058823531 J
r1.045647058823531 C
r1.103529411764703 <
r1.103529411764703 5
1*
b101001 N
1"
#10200000
0*
0"
#10300000
r1.101176470588232 5
r1.101176470588232 <
r1.041882352941178 C
r1.041882352941178 J
1*
b101010 N
1"
#10400000
0*
0"
#10500000
r1.038117647058826 J
r1.038117647058826 C
r1.098823529411761 <
r1.098823529411761 5
1*
b101011 N
1"
#10600000
0*
0"
#10700000
r1.096470588235291 5
r1.096470588235291 <
r1.034352941176473 C
r1.034352941176473 J
1*
b101100 N
1"
#10800000
0*
0"
#10900000
r1.03058823529412 J
r1.03058823529412 C
r1.09411764705882 <
r1.09411764705882 5
1*
b101101 N
1"
#11000000
0*
0"
#11100000
r1.091764705882349 5
r1.091764705882349 <
r1.026823529411767 C
r1.026823529411767 J
1*
b101110 N
1"
#11200000
0*
0"
#11300000
r1.023058823529414 J
r1.023058823529414 C
r1.089411764705879 <
r1.089411764705879 5
1*
b101111 N
1"
#11400000
0*
0"
#11500000
r1.087058823529408 5
r1.087058823529408 <
r1.019294117647061 C
r1.019294117647061 J
1*
b110000 N
1"
#11600000
0*
0"
#11700000
r1.015529411764708 J
r1.015529411764708 C
r1.084705882352937 <
r1.084705882352937 5
1*
b110001 N
1"
#11800000
0*
0"
#11900000
r1.082352941176467 5
r1.082352941176467 <
r1.011764705882355 C
r1.011764705882355 J
1*
b110010 N
1"
#12000000
0*
0"
#12100000
r1.008000000000002 J
r1.008000000000002 C
r1.079999999999996 <
r1.079999999999996 5
1*
b110011 N
1"
#12200000
0*
0"
#12300000
r1.077647058823525 5
r1.077647058823525 <
r1.00423529411765 C
r1.00423529411765 J
1*
b110100 N
1"
#12400000
0*
0"
#12500000
r1.000470588235297 J
r1.000470588235297 C
r1.075294117647055 <
r1.075294117647055 5
1*
b110101 N
1"
#12600000
0*
0"
#12700000
r1.072941176470584 5
r1.072941176470584 <
r0.9967058823529438 C
r0.9967058823529438 J
1*
b110110 N
1"
#12800000
0*
0"
#12900000
r0.9929411764705909 J
r0.9929411764705909 C
r1.070588235294113 <
r1.070588235294113 5
1*
b110111 N
1"
#13000000
0*
0"
#13100000
r1.068235294117643 5
r1.068235294117643 <
r0.989176470588238 C
r0.989176470588238 J
1*
b111000 N
1"
#13200000
0*
0"
#13300000
r0.9854117647058851 J
r0.9854117647058851 C
r1.065882352941172 <
r1.065882352941172 5
1*
b111001 N
1"
#13400000
0*
0"
#13500000
r1.063529411764701 5
r1.063529411764701 <
r0.9816470588235322 C
r0.9816470588235322 J
1*
b111010 N
1"
#13600000
0*
0"
#13700000
r0.9778823529411793 J
r0.9778823529411793 C
r1.061176470588231 <
r1.061176470588231 5
1*
b111011 N
1"
#13800000
0*
0"
#13900000
r1.05882352941176 5
r1.05882352941176 <
r0.9741176470588264 C
r0.9741176470588264 J
1*
b111100 N
1"
#14000000
0*
0"
#14100000
r0.9703529411764735 J
r0.9703529411764735 C
r1.056470588235289 <
r1.056470588235289 5
1*
b111101 N
1"
#14200000
0*
0"
#14300000
r1.054117647058818 5
r1.054117647058818 <
r0.9665882352941206 C
r0.9665882352941206 J
1*
b111110 N
1"
#14400000
0*
0"
#14500000
r0.9628235294117677 J
r0.9628235294117677 C
r1.051764705882348 <
r1.051764705882348 5
1*
b111111 N
1"
#14600000
0*
0"
#14700000
r1.049411764705877 5
r1.049411764705877 <
r0.9590588235294149 C
r0.9590588235294149 J
1*
b1000000 N
1"
#14800000
0*
0"
#14900000
r0.955294117647062 J
r0.955294117647062 C
r1.047058823529406 <
r1.047058823529406 5
1*
b1000001 N
1"
#15000000
0*
0"
#15100000
r1.044705882352936 5
r1.044705882352936 <
r0.9515294117647091 C
r0.9515294117647091 J
1*
b1000010 N
1"
#15200000
0*
0"
#15300000
r0.9477647058823562 J
r0.9477647058823562 C
r1.042352941176465 <
r1.042352941176465 5
1*
b1000011 N
1"
#15400000
0*
0"
#15500000
r1.039999999999994 5
r1.039999999999994 <
r0.9440000000000033 C
r0.9440000000000033 J
1*
b1000100 N
1"
#15600000
0*
0"
#15700000
r0.9402352941176504 J
r0.9402352941176504 C
r1.037647058823524 <
r1.037647058823524 5
1*
b1000101 N
1"
#15800000
0*
0"
#15900000
r1.035294117647053 5
r1.035294117647053 <
r0.9364705882352975 C
r0.9364705882352975 J
1*
b1000110 N
1"
#16000000
0*
0"
#16100000
r0.9327058823529446 J
r0.9327058823529446 C
r1.032941176470582 <
r1.032941176470582 5
1*
b1000111 N
1"
#16200000
0*
0"
#16300000
r1.030588235294112 5
r1.030588235294112 <
r0.9289411764705917 C
r0.9289411764705917 J
1*
b1001000 N
1"
#16400000
0*
0"
#16500000
r0.9251764705882388 J
r0.9251764705882388 C
r1.028235294117641 <
r1.028235294117641 5
1*
b1001001 N
1"
#16600000
0*
0"
#16700000
r1.02588235294117 5
r1.02588235294117 <
r0.9214117647058859 C
r0.9214117647058859 J
1*
b1001010 N
1"
#16800000
0*
0"
#16900000
r0.917647058823533 J
r0.917647058823533 C
r1.0235294117647 <
r1.0235294117647 5
1*
b1001011 N
1"
#17000000
0*
0"
#17100000
r1.021176470588229 5
r1.021176470588229 <
r0.9138823529411801 C
r0.9138823529411801 J
1*
b1001100 N
1"
#17200000
0*
0"
#17300000
r0.9101176470588273 J
r0.9101176470588273 C
r1.018823529411758 <
r1.018823529411758 5
1*
b1001101 N
1"
#17400000
0*
0"
#17500000
r1.016470588235288 5
r1.016470588235288 <
r0.9063529411764744 C
r0.9063529411764744 J
1*
b1001110 N
1"
#17600000
0*
0"
#17700000
r0.9025882352941215 J
r0.9025882352941215 C
r1.014117647058817 <
r1.014117647058817 5
1*
b1001111 N
1"
#17800000
0*
0"
#17900000
r1.011764705882346 5
r1.011764705882346 <
r0.8988235294117686 C
r0.8988235294117686 J
1*
b1010000 N
1"
#18000000
0*
0"
#18100000
r0.8950588235294157 J
r0.8950588235294157 C
r1.009411764705876 <
r1.009411764705876 5
1*
b1010001 N
1"
#18200000
0*
0"
#18300000
r1.007058823529405 5
r1.007058823529405 <
r0.8912941176470628 C
r0.8912941176470628 J
1*
b1010010 N
1"
#18400000
0*
0"
#18500000
r0.8875294117647099 J
r0.8875294117647099 C
r1.004705882352934 <
r1.004705882352934 5
1*
b1010011 N
1"
#18600000
0*
0"
#18700000
r1.002352941176464 5
r1.002352941176464 <
r0.883764705882357 C
r0.883764705882357 J
1*
b1010100 N
1"
#18800000
0*
0"
#18900000
r0.8800000000000041 J
r0.8800000000000041 C
r0.9999999999999932 <
r0.9999999999999932 5
1*
b1010101 N
1"
#19000000
0*
0"
#19100000
r0.9976470588235227 5
r0.9976470588235227 <
r0.8762352941176512 C
r0.8762352941176512 J
1*
b1010110 N
1"
#19200000
0*
0"
#19300000
r0.8724705882352983 J
r0.8724705882352983 C
r0.9952941176470521 <
r0.9952941176470521 5
1*
b1010111 N
1"
#19400000
0*
0"
#19500000
r0.9929411764705816 5
r0.9929411764705816 <
r0.8687058823529454 C
r0.8687058823529454 J
1*
b1011000 N
1"
#19600000
0*
0"
#19700000
r0.8649411764705925 J
r0.8649411764705925 C
r0.990588235294111 <
r0.990588235294111 5
1*
b1011001 N
1"
#19800000
0*
0"
#19900000
r0.9882352941176404 5
r0.9882352941176404 <
r0.8611764705882397 C
r0.8611764705882397 J
1*
b1011010 N
1"
#20000000
0*
0"
#20100000
r0.8574117647058868 J
r0.8574117647058868 C
r0.9858823529411699 <
r0.9858823529411699 5
1*
b1011011 N
1"
#20200000
0*
0"
#20300000
r0.9835294117646993 5
r0.9835294117646993 <
r0.8536470588235339 C
r0.8536470588235339 J
1*
b1011100 N
1"
#20400000
0*
0"
#20500000
r0.849882352941181 J
r0.849882352941181 C
r0.9811764705882288 <
r0.9811764705882288 5
1*
b1011101 N
1"
#20600000
0*
0"
#20700000
r0.9788235294117582 5
r0.9788235294117582 <
r0.8461176470588281 C
r0.8461176470588281 J
1*
b1011110 N
1"
#20800000
0*
0"
#20900000
r0.8423529411764752 J
r0.8423529411764752 C
r0.9764705882352877 <
r0.9764705882352877 5
1*
b1011111 N
1"
#21000000
0*
0"
#21100000
r0.9741176470588171 5
r0.9741176470588171 <
r0.8385882352941223 C
r0.8385882352941223 J
1*
b1100000 N
1"
#21200000
0*
0"
#21300000
r0.8348235294117694 J
r0.8348235294117694 C
r0.9717647058823465 <
r0.9717647058823465 5
1*
b1100001 N
1"
#21400000
0*
0"
#21500000
r0.969411764705876 5
r0.969411764705876 <
r0.8310588235294165 C
r0.8310588235294165 J
1*
b1100010 N
1"
#21600000
0*
0"
#21700000
r0.8272941176470636 J
r0.8272941176470636 C
r0.9670588235294054 <
r0.9670588235294054 5
1*
b1100011 N
1"
#21800000
0*
0"
#21900000
r0.9647058823529349 5
r0.9647058823529349 <
r0.8235294117647107 C
r0.8235294117647107 J
1*
b1100100 N
1"
#22000000
0*
0"
#22100000
r0.8197647058823578 J
r0.8197647058823578 C
r0.9623529411764643 <
r0.9623529411764643 5
1*
b1100101 N
1"
#22200000
0*
0"
#22300000
r0.9599999999999937 5
r0.9599999999999937 <
r0.8160000000000049 C
r0.8160000000000049 J
1*
b1100110 N
1"
#22400000
0*
0"
#22500000
r0.8122352941176521 J
r0.8122352941176521 C
r0.9576470588235232 <
r0.9576470588235232 5
1*
b1100111 N
1"
#22600000
0*
0"
#22700000
r0.9552941176470526 5
r0.9552941176470526 <
r0.8084705882352992 C
r0.8084705882352992 J
1*
b1101000 N
1"
#22800000
0*
0"
#22900000
r0.8047058823529463 J
r0.8047058823529463 C
r0.9529411764705821 <
r0.9529411764705821 5
1*
b1101001 N
1"
#23000000
0*
0"
#23100000
r0.9505882352941115 5
r0.9505882352941115 <
r0.8009411764705934 C
r0.8009411764705934 J
1*
b1101010 N
1"
#23200000
0*
0"
#23300000
r0.7971764705882405 J
r0.7971764705882405 C
r0.948235294117641 <
r0.948235294117641 5
1*
b1101011 N
1"
#23400000
0*
0"
#23500000
r0.9458823529411704 5
r0.9458823529411704 <
r0.7934117647058876 C
r0.7934117647058876 J
1*
b1101100 N
1"
#23600000
0*
0"
#23700000
r0.7896470588235347 J
r0.7896470588235347 C
r0.9435294117646998 <
r0.9435294117646998 5
1*
b1101101 N
1"
#23800000
0*
0"
#23900000
r0.9411764705882293 5
r0.9411764705882293 <
r0.7858823529411818 C
r0.7858823529411818 J
1*
b1101110 N
1"
#24000000
0*
0"
#24100000
r0.7821176470588289 J
r0.7821176470588289 C
r0.9388235294117587 <
r0.9388235294117587 5
1*
b1101111 N
1"
#24200000
0*
0"
#24300000
r0.9364705882352882 5
r0.9364705882352882 <
r0.778352941176476 C
r0.778352941176476 J
1*
b1110000 N
1"
#24400000
0*
0"
#24500000
r0.7745882352941231 J
r0.7745882352941231 C
r0.9341176470588176 <
r0.9341176470588176 5
1*
b1110001 N
1"
#24600000
0*
0"
#24700000
r0.9317647058823471 5
r0.9317647058823471 <
r0.7708235294117702 C
r0.7708235294117702 J
1*
b1110010 N
1"
#24800000
0*
0"
#24900000
r0.7670588235294173 J
r0.7670588235294173 C
r0.9294117647058765 <
r0.9294117647058765 5
1*
b1110011 N
1"
#25000000
0*
0"
#25100000
r0.9270588235294059 5
r0.9270588235294059 <
r0.7632941176470645 C
r0.7632941176470645 J
1*
b1110100 N
1"
#25200000
0*
0"
#25300000
r0.7595294117647116 J
r0.7595294117647116 C
r0.9247058823529354 <
r0.9247058823529354 5
1*
b1110101 N
1"
#25400000
0*
0"
#25500000
r0.9223529411764648 5
r0.9223529411764648 <
r0.7557647058823587 C
r0.7557647058823587 J
1*
b1110110 N
1"
#25600000
0*
0"
#25700000
r0.7520000000000058 J
r0.7520000000000058 C
r0.9199999999999943 <
r0.9199999999999943 5
1*
b1110111 N
1"
#25800000
0*
0"
#25900000
r0.9176470588235237 5
r0.9176470588235237 <
r0.7482352941176529 C
r0.7482352941176529 J
1*
b1111000 N
1"
#26000000
0*
0"
#26100000
r0.7444705882353 J
r0.7444705882353 C
r0.9152941176470532 <
r0.9152941176470532 5
1*
b1111001 N
1"
#26200000
0*
0"
#26300000
r0.9129411764705826 5
r0.9129411764705826 <
r0.7407058823529471 C
r0.7407058823529471 J
1*
b1111010 N
1"
#26400000
0*
0"
#26500000
r0.7369411764705942 J
r0.7369411764705942 C
r0.910588235294112 <
r0.910588235294112 5
1*
b1111011 N
1"
#26600000
0*
0"
#26700000
r0.9082352941176415 5
r0.9082352941176415 <
r0.7331764705882413 C
r0.7331764705882413 J
1*
b1111100 N
1"
#26800000
0*
0"
#26900000
r0.7294117647058884 J
r0.7294117647058884 C
r0.9058823529411709 <
r0.9058823529411709 5
1*
b1111101 N
1"
#27000000
0*
0"
#27100000
r0.9035294117647004 5
r0.9035294117647004 <
r0.7256470588235355 C
r0.7256470588235355 J
1*
b1111110 N
1"
#27200000
0*
0"
#27300000
r0.7218823529411826 J
r0.7218823529411826 C
r0.9011764705882298 <
r0.9011764705882298 5
1*
b1111111 N
1"
#27400000
0*
0"
#27500000
r0.8988235294117592 5
r0.8988235294117592 <
r0.7181176470588297 C
r0.7181176470588297 J
1*
b10000000 N
1"
#27600000
0*
0"
#27700000
r0.7143529411764769 J
r0.7143529411764769 C
r0.8964705882352887 <
r0.8964705882352887 5
1*
b10000001 N
1"
#27800000
0*
0"
#27900000
r0.8941176470588181 5
r0.8941176470588181 <
r0.710588235294124 C
r0.710588235294124 J
1*
b10000010 N
1"
#28000000
0*
0"
#28100000
r0.7068235294117711 J
r0.7068235294117711 C
r0.8917647058823476 <
r0.8917647058823476 5
1*
b10000011 N
1"
#28200000
0*
0"
#28300000
r0.889411764705877 5
r0.889411764705877 <
r0.7030588235294182 C
r0.7030588235294182 J
1*
b10000100 N
1"
#28400000
0*
0"
#28500000
r0.6992941176470653 J
r0.6992941176470653 C
r0.8870588235294065 <
r0.8870588235294065 5
1*
b10000101 N
1"
#28600000
0*
0"
#28700000
r0.8847058823529359 5
r0.8847058823529359 <
r0.6955294117647124 C
r0.6955294117647124 J
1*
b10000110 N
1"
#28800000
0*
0"
#28900000
r0.6917647058823595 J
r0.6917647058823595 C
r0.8823529411764653 <
r0.8823529411764653 5
1*
b10000111 N
1"
#29000000
0*
0"
#29100000
r0.8799999999999948 5
r0.8799999999999948 <
r0.6880000000000066 C
r0.6880000000000066 J
1*
b10001000 N
1"
#29200000
0*
0"
#29300000
r0.6842352941176537 J
r0.6842352941176537 C
r0.8776470588235242 <
r0.8776470588235242 5
1*
b10001001 N
1"
#29400000
0*
0"
#29500000
r0.8752941176470537 5
r0.8752941176470537 <
r0.6804705882353008 C
r0.6804705882353008 J
1*
b10001010 N
1"
#29600000
0*
0"
#29700000
r0.6767058823529479 J
r0.6767058823529479 C
r0.8729411764705831 <
r0.8729411764705831 5
1*
b10001011 N
1"
#29800000
0*
0"
#29900000
r0.8705882352941126 5
r0.8705882352941126 <
r0.672941176470595 C
r0.672941176470595 J
1*
b10001100 N
1"
#30000000
0*
0"
#30100000
r0.6691764705882421 J
r0.6691764705882421 C
r0.868235294117642 <
r0.868235294117642 5
1*
b10001101 N
1"
#30200000
0*
0"
#30300000
r0.8658823529411714 5
r0.8658823529411714 <
r0.6654117647058893 C
r0.6654117647058893 J
1*
b10001110 N
1"
#30400000
0*
0"
#30500000
r0.6616470588235364 J
r0.6616470588235364 C
r0.8635294117647009 <
r0.8635294117647009 5
1*
b10001111 N
1"
#30600000
0*
0"
#30700000
r0.8611764705882303 5
r0.8611764705882303 <
r0.6578823529411835 C
r0.6578823529411835 J
1*
b10010000 N
1"
#30800000
0*
0"
#30900000
r0.6541176470588306 J
r0.6541176470588306 C
r0.8588235294117598 <
r0.8588235294117598 5
1*
b10010001 N
1"
#31000000
0*
0"
#31100000
r0.8564705882352892 5
r0.8564705882352892 <
r0.6503529411764777 C
r0.6503529411764777 J
1*
b10010010 N
1"
#31200000
0*
0"
#31300000
r0.6465882352941248 J
r0.6465882352941248 C
r0.8541176470588187 <
r0.8541176470588187 5
1*
b10010011 N
1"
#31400000
0*
0"
#31500000
r0.8517647058823481 5
r0.8517647058823481 <
r0.6428235294117719 C
r0.6428235294117719 J
1*
b10010100 N
1"
#31600000
0*
0"
#31700000
r0.639058823529419 J
r0.639058823529419 C
r0.8494117647058775 <
r0.8494117647058775 5
1*
b10010101 N
1"
#31800000
0*
0"
#31900000
r0.847058823529407 5
r0.847058823529407 <
r0.6352941176470661 C
r0.6352941176470661 J
1*
b10010110 N
1"
#32000000
0*
0"
#32100000
r0.6315294117647132 J
r0.6315294117647132 C
r0.8447058823529364 <
r0.8447058823529364 5
1*
b10010111 N
1"
#32200000
0*
0"
#32300000
r0.8423529411764659 5
r0.8423529411764659 <
r0.6277647058823603 C
r0.6277647058823603 J
1*
b10011000 N
1"
#32400000
0*
0"
#32500000
r0.6240000000000074 J
r0.6240000000000074 C
r0.8399999999999953 <
r0.8399999999999953 5
1*
b10011001 N
1"
#32600000
0*
0"
#32700000
r0.8376470588235247 5
r0.8376470588235247 <
r0.6202352941176545 C
r0.6202352941176545 J
1*
b10011010 N
1"
#32800000
0*
0"
#32900000
r0.6164705882353017 J
r0.6164705882353017 C
r0.8352941176470542 <
r0.8352941176470542 5
1*
b10011011 N
1"
#33000000
0*
0"
#33100000
r0.8329411764705836 5
r0.8329411764705836 <
r0.6127058823529488 C
r0.6127058823529488 J
1*
b10011100 N
1"
#33200000
0*
0"
#33300000
r0.6089411764705959 J
r0.6089411764705959 C
r0.8305882352941131 <
r0.8305882352941131 5
1*
b10011101 N
1"
#33400000
0*
0"
#33500000
r0.8282352941176425 5
r0.8282352941176425 <
r0.605176470588243 C
r0.605176470588243 J
1*
b10011110 N
1"
#33600000
0*
0"
#33700000
r0.6014117647058901 J
r0.6014117647058901 C
r0.825882352941172 <
r0.825882352941172 5
1*
b10011111 N
1"
#33800000
0*
0"
#33900000
r0.8235294117647014 5
r0.8235294117647014 <
r0.5976470588235372 C
r0.5976470588235372 J
1*
b10100000 N
1"
#34000000
0*
0"
#34100000
r0.5938823529411843 J
r0.5938823529411843 C
r0.8211764705882308 <
r0.8211764705882308 5
1*
b10100001 N
1"
#34200000
0*
0"
#34300000
r0.8188235294117603 5
r0.8188235294117603 <
r0.5901176470588314 C
r0.5901176470588314 J
1*
b10100010 N
1"
#34400000
0*
0"
#34500000
r0.5863529411764785 J
r0.5863529411764785 C
r0.8164705882352897 <
r0.8164705882352897 5
1*
b10100011 N
1"
#34600000
0*
0"
#34700000
r0.8141176470588192 5
r0.8141176470588192 <
r0.5825882352941256 C
r0.5825882352941256 J
1*
b10100100 N
1"
#34800000
0*
0"
#34900000
r0.5788235294117727 J
r0.5788235294117727 C
r0.8117647058823486 <
r0.8117647058823486 5
1*
b10100101 N
1"
#35000000
0*
0"
#35100000
r0.8094117647058781 5
r0.8094117647058781 <
r0.5750588235294198 C
r0.5750588235294198 J
1*
b10100110 N
1"
#35200000
0*
0"
#35300000
r0.5712941176470669 J
r0.5712941176470669 C
r0.8070588235294075 <
r0.8070588235294075 5
1*
b10100111 N
1"
#35400000
0*
0"
#35500000
r0.8047058823529369 5
r0.8047058823529369 <
r0.5675294117647141 C
r0.5675294117647141 J
1*
b10101000 N
1"
#35600000
0*
0"
#35700000
r0.5637647058823612 J
r0.5637647058823612 C
r0.8023529411764664 <
r0.8023529411764664 5
1*
b10101001 N
1"
#35800000
0*
0"
#35900000
r0.7999999999999958 5
r0.7999999999999958 <
r0.5600000000000083 C
r0.5600000000000083 J
1*
b10101010 N
1"
#36000000
0*
0"
#36100000
r0.5562352941176554 J
r0.5562352941176554 C
r0.7976470588235253 <
r0.7976470588235253 5
1*
b10101011 N
1"
#36200000
0*
0"
#36300000
r0.7952941176470547 5
r0.7952941176470547 <
r0.5524705882353025 C
r0.5524705882353025 J
1*
b10101100 N
1"
#36400000
0*
0"
#36500000
r0.5487058823529496 J
r0.5487058823529496 C
r0.7929411764705842 <
r0.7929411764705842 5
1*
b10101101 N
1"
#36600000
0*
0"
#36700000
r0.7905882352941136 5
r0.7905882352941136 <
r0.5449411764705967 C
r0.5449411764705967 J
1*
b10101110 N
1"
#36800000
0*
0"
#36900000
r0.5411764705882438 J
r0.5411764705882438 C
r0.788235294117643 <
r0.788235294117643 5
1*
b10101111 N
1"
#37000000
0*
0"
